-- Merging decision tree log ---
manifest
ADDED from E:\X Sem Internship AKIRA\SuperPlan\superPlan\src\main\AndroidManifest.xml:2:1-46:12
	package
		ADDED from E:\X Sem Internship AKIRA\SuperPlan\superPlan\src\main\AndroidManifest.xml:3:2-31
		INJECTED from E:\X Sem Internship AKIRA\SuperPlan\superPlan\src\main\AndroidManifest.xml
		INJECTED from E:\X Sem Internship AKIRA\SuperPlan\superPlan\src\main\AndroidManifest.xml
	android:versionName
		ADDED from E:\X Sem Internship AKIRA\SuperPlan\superPlan\src\main\AndroidManifest.xml:5:2-27
	android:versionCode
		ADDED from E:\X Sem Internship AKIRA\SuperPlan\superPlan\src\main\AndroidManifest.xml:4:2-25
		INJECTED from E:\X Sem Internship AKIRA\SuperPlan\superPlan\src\main\AndroidManifest.xml
		INJECTED from E:\X Sem Internship AKIRA\SuperPlan\superPlan\src\main\AndroidManifest.xml
	xmlns:android
		ADDED from E:\X Sem Internship AKIRA\SuperPlan\superPlan\src\main\AndroidManifest.xml:2:11-69
uses-sdk
ADDED from E:\X Sem Internship AKIRA\SuperPlan\superPlan\src\main\AndroidManifest.xml:7:2-9:35
MERGED from [SuperPlan:viewpagerindicatorlibrary:unspecified] E:\X Sem Internship AKIRA\SuperPlan\superPlan\build\intermediates\exploded-aar\SuperPlan\viewpagerindicatorlibrary\unspecified\AndroidManifest.xml:7:5-9:41
MERGED from [com.android.support:support-v4:21.0.3] E:\X Sem Internship AKIRA\SuperPlan\superPlan\build\intermediates\exploded-aar\com.android.support\support-v4\21.0.3\AndroidManifest.xml:15:5-42
MERGED from [com.android.support:support-v4:21.0.3] E:\X Sem Internship AKIRA\SuperPlan\superPlan\build\intermediates\exploded-aar\com.android.support\support-v4\21.0.3\AndroidManifest.xml:15:5-42
MERGED from [com.android.support:appcompat-v7:21.0.3] E:\X Sem Internship AKIRA\SuperPlan\superPlan\build\intermediates\exploded-aar\com.android.support\appcompat-v7\21.0.3\AndroidManifest.xml:15:5-42
MERGED from [com.android.support:support-v4:21.0.3] E:\X Sem Internship AKIRA\SuperPlan\superPlan\build\intermediates\exploded-aar\com.android.support\support-v4\21.0.3\AndroidManifest.xml:15:5-42
	android:targetSdkVersion
		ADDED from E:\X Sem Internship AKIRA\SuperPlan\superPlan\src\main\AndroidManifest.xml:9:3-32
		INJECTED from E:\X Sem Internship AKIRA\SuperPlan\superPlan\src\main\AndroidManifest.xml
		INJECTED from E:\X Sem Internship AKIRA\SuperPlan\superPlan\src\main\AndroidManifest.xml
	android:minSdkVersion
		ADDED from E:\X Sem Internship AKIRA\SuperPlan\superPlan\src\main\AndroidManifest.xml:8:3-28
		INJECTED from E:\X Sem Internship AKIRA\SuperPlan\superPlan\src\main\AndroidManifest.xml
		INJECTED from E:\X Sem Internship AKIRA\SuperPlan\superPlan\src\main\AndroidManifest.xml
uses-permission#android.permission.INTERNET
ADDED from E:\X Sem Internship AKIRA\SuperPlan\superPlan\src\main\AndroidManifest.xml:11:2-64
	android:name
		ADDED from E:\X Sem Internship AKIRA\SuperPlan\superPlan\src\main\AndroidManifest.xml:11:19-61
uses-permission#android.permission.ACCESS_NETWORK_STATE
ADDED from E:\X Sem Internship AKIRA\SuperPlan\superPlan\src\main\AndroidManifest.xml:12:2-76
	android:name
		ADDED from E:\X Sem Internship AKIRA\SuperPlan\superPlan\src\main\AndroidManifest.xml:12:19-73
uses-permission#android.permission.ACCESS_WIFI_STATE
ADDED from E:\X Sem Internship AKIRA\SuperPlan\superPlan\src\main\AndroidManifest.xml:13:2-73
	android:name
		ADDED from E:\X Sem Internship AKIRA\SuperPlan\superPlan\src\main\AndroidManifest.xml:13:19-70
uses-permission#android.permission.GET_ACCOUNTS
ADDED from E:\X Sem Internship AKIRA\SuperPlan\superPlan\src\main\AndroidManifest.xml:14:2-68
	android:name
		ADDED from E:\X Sem Internship AKIRA\SuperPlan\superPlan\src\main\AndroidManifest.xml:14:19-65
uses-permission#android.permission.READ_SMS
ADDED from E:\X Sem Internship AKIRA\SuperPlan\superPlan\src\main\AndroidManifest.xml:15:2-64
	android:name
		ADDED from E:\X Sem Internship AKIRA\SuperPlan\superPlan\src\main\AndroidManifest.xml:15:19-61
application
ADDED from E:\X Sem Internship AKIRA\SuperPlan\superPlan\src\main\AndroidManifest.xml:17:2-44:16
MERGED from [com.android.support:support-v4:21.0.3] E:\X Sem Internship AKIRA\SuperPlan\superPlan\build\intermediates\exploded-aar\com.android.support\support-v4\21.0.3\AndroidManifest.xml:16:5-19
MERGED from [com.android.support:support-v4:21.0.3] E:\X Sem Internship AKIRA\SuperPlan\superPlan\build\intermediates\exploded-aar\com.android.support\support-v4\21.0.3\AndroidManifest.xml:16:5-19
MERGED from [com.android.support:appcompat-v7:21.0.3] E:\X Sem Internship AKIRA\SuperPlan\superPlan\build\intermediates\exploded-aar\com.android.support\appcompat-v7\21.0.3\AndroidManifest.xml:16:5-19
MERGED from [com.android.support:support-v4:21.0.3] E:\X Sem Internship AKIRA\SuperPlan\superPlan\build\intermediates\exploded-aar\com.android.support\support-v4\21.0.3\AndroidManifest.xml:16:5-19
	android:label
		ADDED from E:\X Sem Internship AKIRA\SuperPlan\superPlan\src\main\AndroidManifest.xml:20:3-35
	android:allowBackup
		ADDED from E:\X Sem Internship AKIRA\SuperPlan\superPlan\src\main\AndroidManifest.xml:18:3-29
	android:icon
		ADDED from E:\X Sem Internship AKIRA\SuperPlan\superPlan\src\main\AndroidManifest.xml:19:3-32
	android:theme
		ADDED from E:\X Sem Internship AKIRA\SuperPlan\superPlan\src\main\AndroidManifest.xml:21:3-34
activity#com.akira.superplan.SplashScreenActivity
ADDED from E:\X Sem Internship AKIRA\SuperPlan\superPlan\src\main\AndroidManifest.xml:22:3-31:14
	android:screenOrientation
		ADDED from E:\X Sem Internship AKIRA\SuperPlan\superPlan\src\main\AndroidManifest.xml:25:4-40
	android:label
		ADDED from E:\X Sem Internship AKIRA\SuperPlan\superPlan\src\main\AndroidManifest.xml:24:4-36
	android:name
		ADDED from E:\X Sem Internship AKIRA\SuperPlan\superPlan\src\main\AndroidManifest.xml:23:4-40
intent-filter#android.intent.action.MAIN+android.intent.category.LAUNCHER
ADDED from E:\X Sem Internship AKIRA\SuperPlan\superPlan\src\main\AndroidManifest.xml:26:4-30:20
action#android.intent.action.MAIN
ADDED from E:\X Sem Internship AKIRA\SuperPlan\superPlan\src\main\AndroidManifest.xml:27:5-57
	android:name
		ADDED from E:\X Sem Internship AKIRA\SuperPlan\superPlan\src\main\AndroidManifest.xml:27:13-54
category#android.intent.category.LAUNCHER
ADDED from E:\X Sem Internship AKIRA\SuperPlan\superPlan\src\main\AndroidManifest.xml:29:5-65
	android:name
		ADDED from E:\X Sem Internship AKIRA\SuperPlan\superPlan\src\main\AndroidManifest.xml:29:15-62
activity#com.akira.superplan.MainFragmentActivity
ADDED from E:\X Sem Internship AKIRA\SuperPlan\superPlan\src\main\AndroidManifest.xml:32:3-37:46
	android:screenOrientation
		ADDED from E:\X Sem Internship AKIRA\SuperPlan\superPlan\src\main\AndroidManifest.xml:35:4-40
	android:windowSoftInputMode
		ADDED from E:\X Sem Internship AKIRA\SuperPlan\superPlan\src\main\AndroidManifest.xml:37:4-43
	android:configChanges
		ADDED from E:\X Sem Internship AKIRA\SuperPlan\superPlan\src\main\AndroidManifest.xml:34:4-63
	android:theme
		ADDED from E:\X Sem Internship AKIRA\SuperPlan\superPlan\src\main\AndroidManifest.xml:36:4-35
	android:name
		ADDED from E:\X Sem Internship AKIRA\SuperPlan\superPlan\src\main\AndroidManifest.xml:33:4-40
activity#com.akira.superplan.SigninFragmentActivity
ADDED from E:\X Sem Internship AKIRA\SuperPlan\superPlan\src\main\AndroidManifest.xml:38:3-43:46
	android:screenOrientation
		ADDED from E:\X Sem Internship AKIRA\SuperPlan\superPlan\src\main\AndroidManifest.xml:41:4-40
	android:windowSoftInputMode
		ADDED from E:\X Sem Internship AKIRA\SuperPlan\superPlan\src\main\AndroidManifest.xml:43:4-43
	android:configChanges
		ADDED from E:\X Sem Internship AKIRA\SuperPlan\superPlan\src\main\AndroidManifest.xml:40:4-63
	android:theme
		ADDED from E:\X Sem Internship AKIRA\SuperPlan\superPlan\src\main\AndroidManifest.xml:42:4-35
	android:name
		ADDED from E:\X Sem Internship AKIRA\SuperPlan\superPlan\src\main\AndroidManifest.xml:39:4-42
